countersv/wave.vcd
$date
    Mar 23, 2019  05:44:02
$end
$version
    TOOL:	ncsim(64)	15.20-s051
$end
$timescale
    1 ns
$end

$scope module tb_top $end
$var reg       1 !    clk  $end
$var reg       1 "    rst  $end

$scope module i_intf $end
$var reg       1 #    clk  $end
$var reg       1 $    rst  $end
$var reg       1 %    mod  $end
$var reg       3 &    count [2:0] $end
$upscope $end


$scope module dut $end
$var wire      1 '    clk  $end
$var wire      1 (    mod  $end
$var wire      1 )    rst  $end
$var reg       3 *    count [2:0] $end
$upscope $end

$upscope $end

$enddefinitions $end
$dumpvars
0!
1"
0#
1$
x%
bx &
0'
x(
1)
bx *
$end
#5
1!
1#
1'
b0 *
b0 &
0%
0(
#10
0!
0#
0'
#15
0"
1!
0$
1#
1'
0)
b111 *
b111 &
#20
0!
0#
0'
#25
1!
1#
1'
b110 *
b110 &
1%
1(
#30
0!
0#
0'
#35
1!
1#
1'
b111 *
b111 &
0%
0(
#40
0!
0#
0'
#45
1!
1#
1'
b110 *
b110 &
#50
0!
0#
0'
#55
1!
1#
1'
b101 *
b101 &
#60
0!
0#
0'
#65
1!
1#
1'
b100 *
b100 &
1%
1(
#70
0!
0#
0'
#75
1!
1#
1'
b101 *
b101 &
#80
0!
0#
0'
#85
1!
1#
1'
b110 *
b110 &
0%
0(
#90
0!
0#
0'
#95
1!
1#
1'
b101 *
b101 &
#100
0!
0#
0'
#105
1!
1#
1'
b100 *
b100 &
#110
0!
0#
0'
#115
1!
1#
1'
b11 *
b11 &
#120
0!
0#
0'
#125
1!
1#
1'
b10 *
b10 &
#130
0!
0#
0'
#135
1!
1#
1'
b1 *
b1 &
#140
0!
0#
0'
#145
1!
1#
1'
b0 *
b0 &
#150
0!
0#
0'
#155
1!
1#
1'
b111 *
b111 &
#160
0!
0#
0'
#165
1!
1#
1'
b110 *
b110 &
#170
0!
0#
0'
#175
1!
1#
1'
b101 *
b101 &
#180
0!
0#
0'
#185
1!
1#
1'
b100 *
b100 &
#190
0!
0#
0'
#195
1!
1#
1'
b11 *
b11 &
#200
0!
0#
0'
#205
1!
1#
1'
b10 *
b10 &
#210
0!
0#
0'
#215
1!
1#
1'
b1 *
b1 &
#220
0!
0#
0'
#225
1!
1#
1'
b0 *
b0 &
#230
0!
0#
0'
#235
1!
1#
1'
b111 *
b111 &
#240
0!
0#
0'
#245
1!
1#
1'
b110 *
b110 &
#250
0!
0#
0'
#255
1!
1#
1'
b101 *
b101 &
#260
0!
0#
0'
#265
1!
1#
1'
b100 *
b100 &
#270
0!
0#
0'
#275
1!
1#
1'
b11 *
b11 &
#280
0!
0#
0'
#285
1!
1#
1'
b10 *
b10 &
#290
0!
0#
0'
#295
1!
1#
1'
b1 *
b1 &
#300
0!
0#
0'
#305
1!
1#
1'
b0 *
b0 &
#310
0!
0#
0'
#315
1!
1#
1'
b111 *
b111 &
#320
0!
0#
0'
#325
1!
1#
1'
b110 *
b110 &
#330
0!
0#
0'
#335
1!
1#
1'
b101 *
b101 &
#340
0!
0#
0'
#345
1!
1#
1'
b100 *
b100 &
#350
0!
0#
0'
#355
1!
1#
1'
b11 *
b11 &
#360
0!
0#
0'
#365
1!
1#
1'
b10 *
b10 &
#370
0!
0#
0'
#375
1!
1#
1'
b1 *
b1 &
#380
0!
0#
0'
#385
1!
1#
1'
b0 *
b0 &
#390
0!
0#
0'
#395
1!
1#
1'
b111 *
b111 &
#400
0!
0#
0'
#405
1!
1#
1'
b110 *
b110 &
#410
0!
0#
0'
#415
1!
1#
1'
b101 *
b101 &
#420
0!
0#
0'
#425
1!
1#
1'
b100 *
b100 &
#430
0!
0#
0'
#435
1!
1#
1'
b11 *
b11 &
#440
0!
0#
0'
#445
1!
1#
1'
b10 *
b10 &
#450
0!
0#
0'
#455
1!
1#
1'
b1 *
b1 &
#460
0!
0#
0'
#465
1!
1#
1'
b0 *
b0 &
#470
0!
0#
0'
#475
1!
1#
1'
b111 *
b111 &
#480
0!
0#
0'
#485
1!
1#
1'
b110 *
b110 &
#490
0!
0#
0'
#495
1!
1#
1'
b101 *
b101 &
#500
0!
0#
0'
#505
1!
1#
1'
b100 *
b100 &
#510
0!
0#
0'
#515
1!
1#
1'
b11 *
b11 &
#520
0!
0#
0'
#525
1!
1#
1'
b10 *
b10 &
#530
0!
0#
0'
#535
1!
1#
1'
b1 *
b1 &
#540
0!
0#
0'
#545
1!
1#
1'
b0 *
b0 &
#550
0!
0#
0'
#555
1!
1#
1'
b111 *
b111 &
#560
0!
0#
0'
#565
1!
1#
1'
b110 *
b110 &
#570
0!
0#
0'
#575
1!
1#
1'
b101 *
b101 &
#580
0!
0#
0'
#585
1!
1#
1'
b100 *
b100 &
#590
0!
0#
0'
#595
1!
1#
1'
b11 *
b11 &
#600
0!
0#
0'
#605
1!
1#
1'
b10 *
b10 &
#610
0!
0#
0'
#615
1!
1#
1'
b1 *
b1 &
#620
0!
0#
0'
#625
1!
1#
1'
b0 *
b0 &
#630
0!
0#
0'
#635
1!
1#
1'
b111 *
b111 &
#640
0!
0#
0'
#645
1!
1#
1'
b110 *
b110 &
#650
0!
0#
0'
#655
1!
1#
1'
b101 *
b101 &
#660
0!
0#
0'
#665
1!
1#
1'
b100 *
b100 &
#670
0!
0#
0'
#675
1!
1#
1'
b11 *
b11 &
#680
0!
0#
0'
#685
1!
1#
1'
b10 *
b10 &
#690
0!
0#
0'
#695
1!
1#
1'
b1 *
b1 &
#700
0!
0#
0'
#705
1!
1#
1'
b0 *
b0 &
#710
0!
0#
0'
#715
1!
1#
1'
b111 *
b111 &
#720
0!
0#
0'
#725
1!
1#
1'
b110 *
b110 &
#730
0!
0#
0'
#735
1!
1#
1'
b101 *
b101 &
#740
0!
0#
0'
#745
1!
1#
1'
b100 *
b100 &
#750
0!
0#
0'
#755
1!
1#
1'
b11 *
b11 &
#760
0!
0#
0'
#765
1!
1#
1'
b10 *
b10 &
#770
0!
0#
0'
#775
1!
1#
1'
b1 *
b1 &
#780
0!
0#
0'
#785
1!
1#
1'
b0 *
b0 &
#790
0!
0#
0'
#795
1!
1#
1'
b111 *
b111 &
#800
0!
0#
0'
#805
1!
1#
1'
b110 *
b110 &
#810
0!
0#
0'
#815
1!
1#
1'
b101 *
b101 &
#820
0!
0#
0'
#825
1!
1#
1'
b100 *
b100 &
#830
0!
0#
0'
#835
1!
1#
1'
b11 *
b11 &
#840
0!
0#
0'
#845
1!
1#
1'
b10 *
b10 &
#850
0!
0#
0'
#855
1!
1#
1'
b1 *
b1 &
#860
0!
0#
0'
#865
1!
1#
1'
b0 *
b0 &
#870
0!
0#
0'
#875
1!
1#
1'
b111 *
b111 &
#880
0!
0#
0'
#885
1!
1#
1'
b110 *
b110 &
#890
0!
0#
0'
#895
1!
1#
1'
b101 *
b101 &
#900
0!
0#
0'
#905
1!
1#
1'
b100 *
b100 &
#910
0!
0#
0'
#915
1!
1#
1'
b11 *
b11 &
#920
0!
0#
0'
#925
1!
1#
1'
b10 *
b10 &
#930
0!
0#
0'
#935
1!
1#
1'
b1 *
b1 &
#940
0!
0#
0'
#945
1!
1#
1'
b0 *
b0 &
#950
0!
0#
0'
#955
1!
1#
1'
b111 *
b111 &
#960
0!
0#
0'
#965
1!
1#
1'
b110 *
b110 &
#970
0!
0#
0'
#975
1!
1#
1'
b101 *
b101 &
#980
0!
0#
0'
#985
1!
1#
1'
b100 *
b100 &
#990
0!
0#
0'
#995
1!
1#
1'
b11 *
b11 &
